register/counter_waveform.vcd
$date
     Mar 27, 2018       01:29:35
$end

$version
 SystemC 2.3.2-Accellera --- Mar 25 2018 21:19:08
$end

$timescale
     1 ps
$end

$scope module SystemC $end
$var wire    1  aaaaa  clock       $end
$var wire    1  aaaab  reset       $end
$var wire    1  aaaac  load       $end
$var wire    1  aaaad  synch_reset       $end
$var wire    8  aaaae  Din [7:0]  $end
$var wire    8  aaaaf  Dout [7:0]  $end
$upscope $end
$enddefinitions  $end

$comment
All initial values are dumped below at time 0 sec = 0 timescale units.
$end

$dumpvars
1aaaaa
0aaaab
0aaaac
1aaaad
b0 aaaae
b0 aaaaf
$end

#1000
0aaaaa

#2000
1aaaaa

#3000
0aaaaa

#4000
1aaaaa

#5000
0aaaaa

#6000
1aaaaa

#7000
0aaaaa

#8000
1aaaaa
0aaaad
b1 aaaaf

#9000
0aaaaa

#10000
1aaaaa
b10 aaaaf

#11000
0aaaaa

#12000
1aaaaa
1aaaac
b10000000 aaaae

#13000
0aaaaa

#14000
1aaaaa

#15000
0aaaaa

#16000
1aaaaa

#17000
0aaaaa

#18000
1aaaaa

#19000
0aaaaa

#20000
1aaaaa

#21000
0aaaaa

#22000
1aaaaa

#23000
0aaaaa

#24000
1aaaaa

#25000
0aaaaa

#26000
1aaaaa

#27000
0aaaaa

#28000
1aaaaa

#29000
0aaaaa

#30000
1aaaaa

#31000
0aaaaa

#32000
1aaaaa

#33000
0aaaaa

#34000
1aaaaa

#35000
0aaaaa

#36000
1aaaaa

#37000
0aaaaa

#38000
1aaaaa

#39000
0aaaaa

#40000
1aaaaa

#41000
0aaaaa

#42000
1aaaaa

#43000
0aaaaa

#44000
1aaaaa
0aaaac
b11 aaaaf

#45000
0aaaaa

#46000
1aaaaa
b100 aaaaf

#47000
0aaaaa

#48000
1aaaaa
b101 aaaaf

#49000
0aaaaa

#50000
1aaaaa
b110 aaaaf

#51000
0aaaaa

#52000
1aaaaa
b111 aaaaf

#53000
0aaaaa

#54000
1aaaaa
b1000 aaaaf

#55000
0aaaaa

#56000
1aaaaa
b1001 aaaaf

#57000
0aaaaa

#58000
1aaaaa
b1010 aaaaf

#59000
0aaaaa

#60000
1aaaaa
b1011 aaaaf

#61000
0aaaaa

#62000
1aaaaa
b1100 aaaaf

#63000
0aaaaa

#64000
1aaaaa
b1101 aaaaf

#65000
0aaaaa

#66000
1aaaaa
b1110 aaaaf

#67000
0aaaaa

#68000
1aaaaa
b1111 aaaaf

#69000
0aaaaa

#70000
1aaaaa
b10000 aaaaf

#71000
0aaaaa

#72000
1aaaaa
b10001 aaaaf

#73000
0aaaaa

#74000
1aaaaa
b10010 aaaaf

#75000
0aaaaa

#76000
1aaaaa
b10011 aaaaf

#77000
0aaaaa

#78000
1aaaaa
b10100 aaaaf

#79000
0aaaaa

#80000
1aaaaa
b10101 aaaaf

#81000
0aaaaa

#82000
1aaaaa
b10110 aaaaf

#83000
0aaaaa

#84000
1aaaaa
b10111 aaaaf

#85000
0aaaaa

#86000
1aaaaa
b11000 aaaaf

#87000
0aaaaa

#88000
1aaaaa
b11001 aaaaf

#89000
0aaaaa

#90000
1aaaaa
b11010 aaaaf

#91000
0aaaaa

#92000
1aaaaa
b11011 aaaaf

#93000
0aaaaa

#94000
1aaaaa
b11100 aaaaf

#95000
0aaaaa

#96000
1aaaaa
b11101 aaaaf

#97000
0aaaaa

#98000
1aaaaa
b11110 aaaaf

#99000
0aaaaa

#100000
1aaaaa
b11111 aaaaf

#101000
0aaaaa

#102000
1aaaaa
b100000 aaaaf

#103000
0aaaaa

#104000
1aaaaa
b100001 aaaaf

#105000
0aaaaa

#106000
1aaaaa
b100010 aaaaf

#107000
0aaaaa

#108000
1aaaaa
1aaaad
b0 aaaaf

